\relax 
\providecommand\hyper@newdestlabel[2]{}
\providecommand*\new@tpo@label[2]{}
\catcode `"\active 
\providecommand*\tocstyle@set@width[4]{}
\providecommand\HyperFirstAtBeginDocument{\AtBeginDocument}
\HyperFirstAtBeginDocument{\ifx\hyper@anchor\@undefined
\global\let\oldcontentsline\contentsline
\gdef\contentsline#1#2#3#4{\oldcontentsline{#1}{#2}{#3}}
\global\let\oldnewlabel\newlabel
\gdef\newlabel#1#2{\newlabelxx{#1}#2}
\gdef\newlabelxx#1#2#3#4#5#6{\oldnewlabel{#1}{{#2}{#3}}}
\AtEndDocument{\ifx\hyper@anchor\@undefined
\let\contentsline\oldcontentsline
\let\newlabel\oldnewlabel
\fi}
\fi}
\global\let\hyper@last\relax 
\gdef\HyperFirstAtBeginDocument#1{#1}
\providecommand\HyField@AuxAddToFields[1]{}
\providecommand\HyField@AuxAddToCoFields[2]{}
\select@language{english}
\@writefile{toc}{\select@language{english}}
\@writefile{lof}{\select@language{english}}
\@writefile{lot}{\select@language{english}}
\tocstyle@set@width {unum}{toc}{}{27.98337pt}
\tocstyle@set@width {num}{toc}{1}{12.5924pt}
\tocstyle@set@width {skip}{toc}{1}{0.0pt}
\tocstyle@set@width {num}{toc}{2}{19.46669pt}
\tocstyle@set@width {skip}{toc}{2}{12.5924pt}
\tocstyle@set@width {num}{toc}{3}{27.98337pt}
\tocstyle@set@width {skip}{toc}{3}{32.0591pt}
\@writefile{toc}{\contentsline {section}{\numberline {1}Spanners}{3}{section.1}}
\newlabel{fig:circle_ellipse}{{1}{4}{Spanners}{thm.1.1}{}}
\@writefile{lof}{\contentsline {figure}{\numberline {1}{\ignorespaces The ellipse $E$ based on the points $p_i$ and $p_{i+1}$ and the circle $C$.}}{4}{figure.1}}
\@writefile{toc}{\contentsline {subsection}{\numberline {1.1}Well Separated Pair Decomposition}{4}{subsection.1.1}}
\newlabel{lem:pointSeparation}{{1.1}{5}{}{lem.1.1}{}}
\@writefile{loa}{\contentsline {algocf}{\numberline {1}{\ignorespaces The outline of the algorithm used to compute a well separated pair decomposition}}{5}{algocf.1}}
\newlabel{alg:wspd}{{1}{5}{Well Separated Pair Decomposition}{algocf.1}{}}
\@writefile{loa}{\contentsline {algocf}{\numberline {2}{\ignorespaces The \texttt  {Find-Pairs} subroutine.}}{6}{algocf.2}}
\newlabel{alg:findpairs}{{2}{6}{Well Separated Pair Decomposition}{algocf.2}{}}
\@writefile{toc}{\contentsline {subsubsection}{\numberline {1.1.1}Applications}{8}{subsubsection.1.1.1}}
\@writefile{toc}{\contentsline {subsection}{\numberline {1.2}Applications of Spanners}{9}{subsection.1.2}}
\@writefile{loa}{\contentsline {algocf}{\numberline {3}{\ignorespaces Computing the dilation of $C$.}}{11}{algocf.3}}
\newlabel{alg:dilation}{{3}{11}{Applications of Spanners}{algocf.3}{}}
\@writefile{toc}{\contentsline {section}{\numberline {2}Distance Problems in $\mathbb  R^2$}{11}{section.2}}
